%!PS-Adobe-3.0 EPSF-3.0
%%HiResBoundingBox: 0 0 200 200
%%BoundingBox: 0 0 200 200
%%Creator: Serif Affinity
%LanguageLevel: 3
%%DocumentData: Clean7Bit
%%EndComments
%%BeginProlog
101 dict begin
/m/moveto
/l/lineto
/c/curveto
3{load def}repeat
%%EndProlog
gsave
 
 % Rectangle
   newpath
   100 200 m
   100 200 0 200 0 200 c
   0 200 0 100 0 100 c
   0 100 100 100 100 100 c
   100 100 100 200 100 200 c
   closepath
   /DeviceRGB setcolorspace
   0 0 0 setcolor
   eofill
 
 % Rectangle
   100 100 m
   100 100 0 100 0 100 c
   0 100 0 0 0 0 c
   0 0 100 0 100 0 c
   100 0 100 100 100 100 c
   closepath
   /DeviceRGB setcolorspace
   1 1 1 setcolor
   eofill
 
 % Rectangle
   200 200 m
   200 200 100 200 100 200 c
   100 200 100 100 100 100 c
   100 100 200 100 200 100 c
   200 100 200 200 200 200 c
   closepath
   /DeviceRGB setcolorspace
   1 1 1 setcolor
   eofill
 
 % Rectangle
   200 100 m
   200 100 100 100 100 100 c
   100 100 100 0 100 0 c
   100 0 200 0 200 0 c
   200 0 200 100 200 100 c
   closepath
   /DeviceRGB setcolorspace
   0 0 0 setcolor
   eofill
 grestore
showpage
end